{
	"project": {
		"version": "1.0.0-beta.11-webpack.2",
		"name": "checker"
	},
	"apps": [
		{
			"root": "src",
			"outDir": "dist",
			"assets": "assets",
			"index": "index.html",
			"main": "main.ts",
			"test": "test.ts",
			"tsconfig": "tsconfig.json",
			"prefix": "app",
			"mobile": false,
			"styles": "styles.css",
			"environments": {
				"source": "environments/environment.ts",
				"prod": "environments/environment.prod.ts",
				"dev": "environments/environment.dev.ts"
			}
		}
	],
	"addons": [],
	"packages": [],
	"e2e": {
		"protractor": {
			"config": "./protractor.conf.js"
		}
	},
	"test": {
		"karma": {
			"config": "./karma.conf.js"
		}
	},
	"defaults": {
		"styleExt": "css",
		"prefixInterfaces": false,
		"lazyRoutePrefix": "+",
		"sourceDir": "src"
	}
}